%YAML 1.1
%TAG !u! tag:unity3d.com,2011:
--- !u!21 &2100000
Material:
  serializedVersion: 6
  m_ObjectHideFlags: 0
  m_PrefabParentObject: {fileID: 0}
  m_PrefabInternal: {fileID: 0}
  m_Name: point_2_3
  m_Shader: {fileID: 34, guid: 0000000000000000f000000000000000, type: 0}
  m_ShaderKeywords: 
  m_LightmapFlags: 4
  m_EnableInstancingVariants: 0
  m_CustomRenderQueue: -1
  stringTagMap: {}
  disabledShaderPasses: []
  m_SavedProperties:
    serializedVersion: 3
    m_TexEnvs:
    - _BumpMap:
        m_Texture: {fileID: 0}
        m_Scale: {x: 1, y: 1}
        m_Offset: {x: 0, y: 0}
    - _DecalTex:
        m_Texture: {fileID: 0}
        m_Scale: {x: 1, y: 1}
        m_Offset: {x: 0, y: 0}
    - _Illum:
        m_Texture: {fileID: 0}
        m_Scale: {x: 1, y: 1}
        m_Offset: {x: 0, y: 0}
    - _MainTex:
        m_Texture: {fileID: 2800000, guid: 85e16f4e85893cb4da7b52fa77b7c617, type: 3}
        m_Scale: {x: 1, y: 1}
        m_Offset: {x: 0, y: 0}
    - _ParallaxMap:
        m_Texture: {fileID: 0}
        m_Scale: {x: 1, y: 1}
        m_Offset: {x: 0, y: 0}
    m_Floats:
    - _Cutoff: 0.6567164
    - _EmissionLM: 0
    - _InvFade: 3
    - _Parallax: 0.02
    - _Shininess: 0.10000002
    m_Colors:
    - _Color: {r: 0.104477584, g: 0.104477584, b: 0.104477584, a: 1}
    - _EmisColor: {r: 1, g: 1, b: 1, a: 0}
    - _Emission: {r: 0.63432837, g: 0, b: 0, a: 0}
    - _SpecColor: {r: 0, g: 0, b: 0, a: 1}
    - _TintColor: {r: 1, g: 1, b: 1, a: 0.5019608}
